{
  "appTitle": "Fossil Fuel Emissions",
  "coursePrefix": "GEOG",
  "courseNumber": "104",
  "rangeSlider": {
    "position": 0,
    "images": [{
        "alt": "The image depicts a graph, showing the Global Mean Temperature on the y-axis and the C02 concentration on the x-axis",
        "active": true,
        "position": 0,
        "src": "components/local-data/img/FF1.png",
        "caption": [
          "This graph shows the first quadrant of the Cartesian Plane, with the origin starting at(100, 8).",
          "This graph is used to represent the relationship between global warming and carbon dioxide concentration.",
          "The x - axis represents carbon dioxide concentration measured in “parts per million”.",
          "The values of the x coordinates range from 100 to 1200, with an interval of 100.",
          "The y - axis represents global mean temperature measured in Celsius.",
          "The values of y coordinates is from 8 to 24, with an interval of 2.",
          "There is one vertical line on this graph.One point on this line is marked in red,",
          "it is located at the maximum height of the line.",
          "The x - coordinate of this point is 280 ppm(parts per million) while the y - coordinate of this point is 15° C."
        ]
      },
      {
        "position": 1,
        "src": "components/local-data/img/FF2.png",
        "alt": "The image depicts a graph, showing the Global Mean Temperature on the y-axis and the C02 concentration on the x-axis",
        "active": false,
        "caption": [
          "This graph shows the first quadrant of the Cartesian Plane, with the origin starting at(100, 8).",
          "This graph is used to represent the relationship between global warming and carbon dioxide concentration.",
          "The x-axis represents carbon dioxide concentration measured in “parts per million”.",
          "The values of the x coordinates range from 100 to 1200, with an interval of 100.",
          "The y-axis represents global mean temperature measured in Celsius.",
          "The values of y coordinates start from 8 to 24, with an interval of 2.",
          "There are now two vertical lines on this graph ( the one from before and a new one).",
          "One point on this new line is marked in red, it is located at the maximum height of the line.",
          "The x-coordinate of this red dot is at 380ppm while the y-coordinate is at 17°C."
        ]
      },
      {
        "position": 2,
        "src": "components/local-data/img/FF3.png",
        "alt": "The image depicts a graph, showing the Global Mean Temperature on the y-axis and the C02 concentration on the x-axis",
        "active": false,
        "caption": [
          "This graph shows the first quadrant of the Cartesian Plane, with the origin starting at(100, 8).",
          "This graph is used to represent the relationship between global warming and carbon dioxide concentration.",
          "The x-axis represents carbon dioxide concentration measured in “parts per million”.",
          "The values of the x coordinates range from 100 to 1200, with an interval of 100.",
          "The y-axis represents global mean temperature measured in Celsius.",
          "The values of y coordinates start from 8 to 24, with an interval of 2.",
          "There are now three vertical lines on this graph ( the ones from before and a new one).",
          "One point on this new line is marked in red, it is located at the maximum height of the line.",
          "The x-coordinate of this red dot is at 560ppm while the y-coordinate is at 19°C. "
        ]
      },
      {
        "position": 3,
        "src": "components/local-data/img/FF4.png",
        "alt": "The image depicts a graph, showing the Global Mean Temperature on the y-axis and the C02 concentration on the x-axis",
        "active": false,
        "caption": [
          "This graph shows the first quadrant of the Cartesian Plane, with the origin starting at(100, 8).",
          "This graph is used to represent the relationship between global warming and carbon dioxide concentration.",
          "The x-axis represents carbon dioxide concentration measured in “parts per million”.",
          "The values of the x coordinates range from 100 to 1200, with an interval of 100.",
          "The y-axis represents global mean temperature measured in Celsius.",
          "The values of y coordinates start from 8 to 24, with an interval of 2.",
          "There are now four vertical lines on this graph ( the ones from before and a new one).",
          "One point on this new line is marked in red, it is located at the maximum height of the line.",
          "The x-coordinate of this red dot is at 840ppm while the y-coordinate is at 21°C."
        ]
      },
      {
        "position": 4,
        "src": "components/local-data/img/FF5.png",
        "alt": "The image depicts a graph, showing the Global Mean Temperature on the y-axis and the C02 concentration on the x-axis",
        "active": false,
        "caption": [
          "This graph shows the first quadrant of the Cartesian Plane, with the origin starting at(100, 8).",
          "This graph is used to represent the relationship between global warming and carbon dioxide concentration.",
          "The x-axis represents carbon dioxide concentration measured in “parts per million”.",
          "The values of the x coordinates range from 100 to 1200, with an interval of 100.",
          "The y-axis represents global mean temperature measured in Celsius.",
          "The values of y coordinates start from 8 to 24, with an interval of 2.",
          "There are now five vertical lines on this graph ( the ones from before and a new one).",
          "One point on this new line is marked in red, it is located at the maximum height of the line.",
          "The x-coordinate of this red dot is at 1120ppm while the y-coordinate is at 23°C.",
          "The five red points together help draw a curve which shows",
          "that as the global mean temperature increases the carbon dioxide concentration increases"
        ]
      }
    ]
  }
}